{
	"id":	"domain_service6",
	"type": "type_service6",
	"url" : "http://surf.scss.tcd.ie/service6",
	"name": "service6",
	"provider": "provider_service6",
	"domains":[
		{
			"name":"domain1_service6",
			"url":"http://ontology/domain1#"
		}, 
		{
			"name":"domain2_service6",
			"url":"http://ontology/domain2#"
		}
	],
	"inputs": [
		{
			"name":"output_service3",
			"type": "string",
			"description": "The input is the output of service3",
			"unit":"unit_qos1_service1"
		}
	],
	"outputs": [
		{
			"name":"output_service4",
			"type": "string",
			"description": "The output is the output of service4",
			"unit":"unit_qos1_service1"
		}
	],
	"qos": [
		{
			"name":"qos_attribute1_service6",
			"value":500,
			"unit":"unit_qos1_service1"
		},
		{
			"name":"qos_attribute2_service6",
			"value":500,
			"unit":"unit_qos1_service1"
		}
	],
	"location": {
		"latitude":"lat_service6",
		"longitude":"lon_service6"
	}
}