1700,50,ONLINE,2.0,4.0; 1800,600,ONLINE, 2.0, 4.0; 1400,800,ONLINE,2.0, 4.0; 600,1000,ONLINE,2.0, 4.0;  700,1500,ONLINE,2.0, 4.0; 650,2000,ONLINE,2.0, 4.0; 1000,75,OFFLINE, 1.0,1.0; 1700,100,ONLINE,2.0,4.0; 1800,600,ONLINE, 2.0, 4.0; 1400,800,ONLINE,2.0, 4.0; 600,1000,ONLINE,2.0, 4.0;  700,1500,ONLINE,2.0, 4.0; 650,2000,ONLINE,2.0, 4.0; 1000,50,OFFLINE, 1.0,1.0; 1700,50,ONLINE,2.0,4.0; 1800,600,ONLINE, 2.0, 4.0; 1400,800,ONLINE,2.0, 4.0; 600,1000,ONLINE,2.0, 4.0;  700,1500,ONLINE,2.0, 4.0; 650,2000,ONLINE,2.0, 4.0; 1000,75,OFFLINE, 1.0,1.0; 1700,100,ONLINE,2.0,4.0; 1800,600,ONLINE, 2.0, 4.0; 1400,800,ONLINE,2.0, 4.0; 600,1000,ONLINE,2.0, 4.0;  700,1500,ONLINE,2.0, 4.0; 650,2000,ONLINE,2.0, 4.0; 1000,75,OFFLINE, 1.0,1.0; 1700,50,ONLINE,2.0,4.0; 1800,600,ONLINE, 2.0, 4.0; 1400,800,ONLINE,2.0, 4.0; 600,1000,ONLINE,2.0, 4.0;  700,1500,ONLINE,2.0, 4.0; 650,2000,ONLINE,2.0, 4.0; 1000,75,OFFLINE, 1.0,1.0; 1700,100,ONLINE,2.0,4.0; 1800,600,ONLINE, 2.0, 4.0; 1400,800,ONLINE,2.0, 4.0; 600,1000,ONLINE,2.0, 4.0;  700,1500,ONLINE,2.0, 4.0; 650,2000,ONLINE,2.0, 4.0; 1000,50,OFFLINE, 1.0,1.0; 1700,50,ONLINE,2.0,4.0; 1800,600,ONLINE, 2.0, 4.0; 1400,800,ONLINE,2.0, 4.0; 600,1000,ONLINE,2.0, 4.0;  700,1500,ONLINE,2.0, 4.0; 650,2000,ONLINE,2.0, 4.0; 1000,75,OFFLINE, 1.0,1.0; 1700,100,ONLINE,2.0,4.0; 1800,600,ONLINE, 2.0, 4.0; 1400,800,ONLINE,2.0, 4.0; 600,1000,ONLINE,2.0, 4.0;  700,1500,ONLINE,2.0, 4.0; 650,2000,ONLINE,2.0, 4.0; 1000,75,OFFLINE, 1.0,1.0
625,1000,ONLINE,2.0, 4.0; 300,900,ONLINE,2.0,4.0; 200,500,ONLINE, 2.0, 4.0; 0,0,ONLINE,2.0, 4.0; 625,1800,OFFLINE, 1.0,1.0; 625,1000,ONLINE,2.0, 4.0; 300,900,ONLINE,2.0,4.0; 200,500,ONLINE, 2.0, 4.0; 0,0,ONLINE,2.0, 4.0; 625,1800,OFFLINE, 1.0,1.0; 625,1000,ONLINE,2.0, 4.0; 300,900,ONLINE,2.0,4.0; 200,500,ONLINE, 2.0, 4.0; 0,0,ONLINE,2.0, 4.0; 625,1800,OFFLINE, 1.0,1.0; 625,1000,ONLINE,2.0, 4.0; 300,900,ONLINE,2.0,4.0; 200,500,ONLINE, 2.0, 4.0; 0,0,ONLINE,2.0, 4.0; 625,1800,OFFLINE, 1.0,1.0; 625,1000,ONLINE,2.0, 4.0; 300,900,ONLINE,2.0,4.0; 200,500,ONLINE, 2.0, 4.0; 0,0,ONLINE,2.0, 4.0; 625,1800,OFFLINE, 1.0,1.0; 625,1000,ONLINE,2.0, 4.0; 300,900,ONLINE,2.0,4.0; 200,500,ONLINE, 2.0, 4.0; 0,0,ONLINE,2.0, 4.0; 625,1800,OFFLINE, 1.0,1.0; 625,1000,ONLINE,2.0, 4.0; 300,900,ONLINE,2.0,4.0; 200,500,ONLINE, 2.0, 4.0; 0,0,ONLINE,2.0, 4.0; 625,1800,OFFLINE, 1.0,1.0; 625,1000,ONLINE,2.0, 4.0; 300,900,ONLINE,2.0,4.0; 200,500,ONLINE, 2.0, 4.0; 0,0,ONLINE,2.0, 4.0; 625,1800,OFFLINE, 1.0,1.0
1700,1800,ONLINE,2.0, 4.0; 1450,900,ONLINE,2.0,4.0; 1700,600,ONLINE, 2.0, 4.0; 2000,0,ONLINE,2.0, 4.0; 1550,2000,OFFLINE, 1.0,1.0; 1700,1800,ONLINE,2.0, 4.0; 1450,900,ONLINE,2.0,4.0; 1700,600,ONLINE, 2.0, 4.0; 2000,0,ONLINE,2.0, 4.0; 1550,2000,OFFLINE, 1.0,1.0; 1700,1800,ONLINE,2.0, 4.0; 1450,900,ONLINE,2.0,4.0; 1700,600,ONLINE, 2.0, 4.0; 2000,0,ONLINE,2.0, 4.0; 1550,2000,OFFLINE, 1.0,1.0; 1700,1800,ONLINE,2.0, 4.0; 1450,900,ONLINE,2.0,4.0; 1700,600,ONLINE, 2.0, 4.0; 2000,0,ONLINE,2.0, 4.0; 1550,2000,OFFLINE, 1.0,1.0; 1700,1800,ONLINE,2.0, 4.0; 1450,900,ONLINE,2.0,4.0; 1700,600,ONLINE, 2.0, 4.0; 2000,0,ONLINE,2.0, 4.0; 1550,2000,OFFLINE, 1.0,1.0; 1700,1800,ONLINE,2.0, 4.0; 1450,900,ONLINE,2.0,4.0; 1700,600,ONLINE, 2.0, 4.0; 2000,0,ONLINE,2.0, 4.0; 1550,2000,OFFLINE, 1.0,1.0; 1700,1800,ONLINE,2.0, 4.0; 1450,900,ONLINE,2.0,4.0; 1700,600,ONLINE, 2.0, 4.0; 2000,0,ONLINE,2.0, 4.0; 1550,2000,OFFLINE, 1.0,1.0; 1700,1800,ONLINE,2.0, 4.0; 1450,900,ONLINE,2.0,4.0; 1700,600,ONLINE, 2.0, 4.0; 2000,0,ONLINE,2.0, 4.0; 1550,2000,OFFLINE, 1.0,1.0
600,600,ONLINE,2.0, 4.0; 1700,550,ONLINE,2.0,4.0; 1800,700,ONLINE, 2.0, 4.0; 1600,1400,ONLINE,2.0, 4.0; 1550,2000,ONLINE,2.0, 4.0; 50,1000,OFFLINE, 1.0,1.0; 600,600,ONLINE,2.0, 4.0; 1700,550,ONLINE,2.0,4.0; 1800,700,ONLINE, 2.0, 4.0; 1600,1400,ONLINE,2.0, 4.0; 1550,2000,ONLINE,2.0, 4.0; 50,1000,OFFLINE, 1.0,1.0; 600,600,ONLINE,2.0, 4.0; 1700,550,ONLINE,2.0,4.0; 1800,700,ONLINE, 2.0, 4.0; 1600,1400,ONLINE,2.0, 4.0; 1550,2000,ONLINE,2.0, 4.0; 50,1000,OFFLINE, 1.0,1.0; 600,600,ONLINE,2.0, 4.0; 1700,550,ONLINE,2.0,4.0; 1800,700,ONLINE, 2.0, 4.0; 1600,1400,ONLINE,2.0, 4.0; 1550,2000,ONLINE,2.0, 4.0; 50,1000,OFFLINE, 1.0,1.0; 600,600,ONLINE,2.0, 4.0; 1700,550,ONLINE,2.0,4.0; 1800,700,ONLINE, 2.0, 4.0; 1600,1400,ONLINE,2.0, 4.0; 1550,2000,ONLINE,2.0, 4.0; 50,1000,OFFLINE, 1.0,1.0; 600,600,ONLINE,2.0, 4.0; 1700,550,ONLINE,2.0,4.0; 1800,700,ONLINE, 2.0, 4.0; 1600,1400,ONLINE,2.0, 4.0; 1550,2000,ONLINE,2.0, 4.0; 50,1000,OFFLINE, 1.0,1.0; 600,600,ONLINE,2.0, 4.0; 1700,550,ONLINE,2.0,4.0; 1800,700,ONLINE, 2.0, 4.0; 1600,1400,ONLINE,2.0, 4.0; 1550,2000,ONLINE,2.0, 4.0; 50,1000,OFFLINE, 1.0,1.0; 600,600,ONLINE,2.0, 4.0; 1700,550,ONLINE,2.0,4.0; 1800,700,ONLINE, 2.0, 4.0; 1600,1400,ONLINE,2.0, 4.0; 1550,2000,ONLINE,2.0, 4.0; 50,1000,OFFLINE, 1.0,1.0
300,600,ONLINE,2.0, 4.0; 850,1000,ONLINE,2.0,4.0; 1000,600,ONLINE,2.0, 4.0; 1550,750,ONLINE,2.0, 4.0; 1950,1000,ONLINE,2.0, 4.0; 50,300,OFFLINE, 1.0, 1.0; 300,600,ONLINE,2.0, 4.0; 850,1000,ONLINE,2.0,4.0; 1000,600,ONLINE,2.0, 4.0; 1550,750,ONLINE,2.0, 4.0; 1950,1000,ONLINE,2.0, 4.0; 50,300,OFFLINE, 1.0, 1.0; 300,600,ONLINE,2.0, 4.0; 850,1000,ONLINE,2.0,4.0; 1000,600,ONLINE,2.0, 4.0; 1550,750,ONLINE,2.0, 4.0; 1950,1000,ONLINE,2.0, 4.0; 50,300,OFFLINE, 1.0, 1.0; 300,600,ONLINE,2.0, 4.0; 850,1000,ONLINE,2.0,4.0; 1000,600,ONLINE,2.0, 4.0; 1550,750,ONLINE,2.0, 4.0; 1950,1000,ONLINE,2.0, 4.0; 50,300,OFFLINE, 1.0, 1.0; 300,600,ONLINE,2.0, 4.0; 850,1000,ONLINE,2.0,4.0; 1000,600,ONLINE,2.0, 4.0; 1550,750,ONLINE,2.0, 4.0; 1950,1000,ONLINE,2.0, 4.0; 50,300,OFFLINE, 1.0, 1.0; 300,600,ONLINE,2.0, 4.0; 850,1000,ONLINE,2.0,4.0; 1000,600,ONLINE,2.0, 4.0; 1550,750,ONLINE,2.0, 4.0; 1950,1000,ONLINE,2.0, 4.0; 50,300,OFFLINE, 1.0, 1.0; 300,600,ONLINE,2.0, 4.0; 850,1000,ONLINE,2.0,4.0; 1000,600,ONLINE,2.0, 4.0; 1550,750,ONLINE,2.0, 4.0; 1950,1000,ONLINE,2.0, 4.0; 50,300,OFFLINE, 1.0, 1.0; 300,600,ONLINE,2.0, 4.0; 850,1000,ONLINE,2.0,4.0; 1000,600,ONLINE,2.0, 4.0; 1550,750,ONLINE,2.0, 4.0; 1950,1000,ONLINE,2.0, 4.0; 50,300,OFFLINE, 1.0, 1.0
1750,200,ONLINE,2.0, 4.0; 1600,50,ONLINE,2.0,4.0; 350,100,ONLINE,2.0, 4.0; 250,600,ONLINE,2.0, 4.0; 450,1000,ONLINE,2.0, 4.0; 50,1200,ONLINE,2.0, 4.0; 1950,450,OFFLINE, 1.0, 1.0; 1750,200,ONLINE,2.0, 4.0; 1600,50,ONLINE,2.0,4.0; 350,100,ONLINE,2.0, 4.0; 250,600,ONLINE,2.0, 4.0; 450,1000,ONLINE,2.0, 4.0; 50,1200,ONLINE,2.0, 4.0; 1950,450,OFFLINE, 1.0, 1.0; 1750,200,ONLINE,2.0, 4.0; 1600,50,ONLINE,2.0,4.0; 350,100,ONLINE,2.0, 4.0; 250,600,ONLINE,2.0, 4.0; 450,1000,ONLINE,2.0, 4.0; 50,1200,ONLINE,2.0, 4.0; 1950,450,OFFLINE, 1.0, 1.0; 1750,200,ONLINE,2.0, 4.0; 1600,50,ONLINE,2.0,4.0; 350,100,ONLINE,2.0, 4.0; 250,600,ONLINE,2.0, 4.0; 450,1000,ONLINE,2.0, 4.0; 50,1200,ONLINE,2.0, 4.0; 1950,450,OFFLINE, 1.0, 1.0; 1750,200,ONLINE,2.0, 4.0; 1600,50,ONLINE,2.0,4.0; 350,100,ONLINE,2.0, 4.0; 250,600,ONLINE,2.0, 4.0; 450,1000,ONLINE,2.0, 4.0; 50,1200,ONLINE,2.0, 4.0; 1950,450,OFFLINE, 1.0, 1.0; 1750,200,ONLINE,2.0, 4.0; 1600,50,ONLINE,2.0,4.0; 350,100,ONLINE,2.0, 4.0; 250,600,ONLINE,2.0, 4.0; 450,1000,ONLINE,2.0, 4.0; 50,1200,ONLINE,2.0, 4.0; 1950,450,OFFLINE, 1.0, 1.0; 1750,200,ONLINE,2.0, 4.0; 1600,50,ONLINE,2.0,4.0; 350,100,ONLINE,2.0, 4.0; 250,600,ONLINE,2.0, 4.0; 450,1000,ONLINE,2.0, 4.0; 50,1200,ONLINE,2.0, 4.0; 1950,450,OFFLINE, 1.0, 1.0; 1750,200,ONLINE,2.0, 4.0; 1600,50,ONLINE,2.0,4.0; 350,100,ONLINE,2.0, 4.0; 250,600,ONLINE,2.0, 4.0; 450,1000,ONLINE,2.0, 4.0; 50,1200,ONLINE,2.0, 4.0; 1950,450,OFFLINE, 1.0, 1.0
650,1550,ONLINE,2.0, 4.0; 750,1050,ONLINE,2.0, 4.0; 1200,750,ONLINE,2.0, 4.0; 1600,1050,ONLINE,2.0, 4.0; 1950,550,ONLINE,2.0, 4.0; 700,1950,OFFLINE,1.0, 1.0; 650,1550,ONLINE,2.0, 4.0; 750,1050,ONLINE,2.0, 4.0; 1200,750,ONLINE,2.0, 4.0; 1600,1050,ONLINE,2.0, 4.0; 1950,550,ONLINE,2.0, 4.0; 700,1950,OFFLINE,1.0, 1.0; 650,1550,ONLINE,2.0, 4.0; 750,1050,ONLINE,2.0, 4.0; 1200,750,ONLINE,2.0, 4.0; 1600,1050,ONLINE,2.0, 4.0; 1950,550,ONLINE,2.0, 4.0; 700,1950,OFFLINE,1.0, 1.0; 650,1550,ONLINE,2.0, 4.0; 750,1050,ONLINE,2.0, 4.0; 1200,750,ONLINE,2.0, 4.0; 1600,1050,ONLINE,2.0, 4.0; 1950,550,ONLINE,2.0, 4.0; 700,1950,OFFLINE,1.0, 1.0; 650,1550,ONLINE,2.0, 4.0; 750,1050,ONLINE,2.0, 4.0; 1200,750,ONLINE,2.0, 4.0; 1600,1050,ONLINE,2.0, 4.0; 1950,550,ONLINE,2.0, 4.0; 700,1950,OFFLINE,1.0, 1.0; 650,1550,ONLINE,2.0, 4.0; 750,1050,ONLINE,2.0, 4.0; 1200,750,ONLINE,2.0, 4.0; 1600,1050,ONLINE,2.0, 4.0; 1950,550,ONLINE,2.0, 4.0; 700,1950,OFFLINE,1.0, 1.0; 650,1550,ONLINE,2.0, 4.0; 750,1050,ONLINE,2.0, 4.0; 1200,750,ONLINE,2.0, 4.0; 1600,1050,ONLINE,2.0, 4.0; 1950,550,ONLINE,2.0, 4.0; 700,1950,OFFLINE,1.0, 1.0; 650,1550,ONLINE,2.0, 4.0; 750,1050,ONLINE,2.0, 4.0; 1200,750,ONLINE,2.0, 4.0; 1600,1050,ONLINE,2.0, 4.0; 1950,550,ONLINE,2.0, 4.0; 700,1950,OFFLINE,1.0, 1.0
1550,1250,ONLINE,2.0, 4.0; 1050,950,ONLINE,2.0, 4.0; 650,700,ONLINE,2.0, 4.0; 50,450,ONLINE,2.0, 4.0; 1550,1950,OFFLINE, 1.0, 1.0; 1550,1250,ONLINE,2.0, 4.0; 1050,950,ONLINE,2.0, 4.0; 650,700,ONLINE,2.0, 4.0; 50,450,ONLINE,2.0, 4.0; 1550,1950,OFFLINE, 1.0, 1.0; 1550,1250,ONLINE,2.0, 4.0; 1050,950,ONLINE,2.0, 4.0; 650,700,ONLINE,2.0, 4.0; 50,450,ONLINE,2.0, 4.0; 1550,1950,OFFLINE, 1.0, 1.0; 1550,1250,ONLINE,2.0, 4.0; 1050,950,ONLINE,2.0, 4.0; 650,700,ONLINE,2.0, 4.0; 50,450,ONLINE,2.0, 4.0; 1550,1950, OFFLINE, 1.0, 1.0; 1450,1250,ONLINE,2.0, 4.0; 1050,1050,ONLINE,2.0, 4.0; 650,700,ONLINE,2.0, 4.0; 50,450,ONLINE,2.0, 4.0; 1550,1950,OFFLINE, 1.0, 1.0; 1550,1250,ONLINE,2.0, 4.0; 1050,950,ONLINE,2.0, 4.0; 650,700,ONLINE,2.0, 4.0; 50,450,ONLINE,2.0, 4.0; 1550,1950,OFFLINE, 1.0, 1.0; 1550,1250,ONLINE,2.0, 4.0; 1050,950,ONLINE,2.0, 4.0; 650,700,ONLINE,2.0, 4.0; 50,450,ONLINE,2.0, 4.0; 1550,1950,OFFLINE, 1.0, 1.0; 1550,1250,ONLINE,2.0, 4.0; 1050,950,ONLINE,2.0, 4.0; 650,700,ONLINE,2.0, 4.0; 50,450,ONLINE,2.0, 4.0; 1550,1950,OFFLINE, 1.0, 1.0; 1550,1250,ONLINE,2.0, 4.0; 1050,950,ONLINE,2.0, 4.0; 650,700,ONLINE,2.0, 4.0; 50,450,ONLINE,2.0, 4.0; 1550,1950, OFFLINE, 1.0, 1.0; 1450,1250,ONLINE,2.0, 4.0; 1050,1050,ONLINE,2.0, 4.0; 650,700,ONLINE,2.0, 4.0; 50,450,ONLINE,2.0, 4.0; 1550,1950,OFFLINE, 1.0, 1.0;